Date,"First Name","Last Name","Email","Amount","Currency","InvoiceID","Country"
08.22.2017,"Simon","Grimm","a@gmail.com","2500","EUR","0001","GER"
08.22.2017,"Simon 1","Grimm 1","a@gmail.com","2500","EUR","0002","GER"
08.22.2017,"Simon 2","Grimm 2","a@gmail.com","2500","EUR","0003","GER"
08.22.2017,"Simon 3","Grimm 3","a@gmail.com","2500","EUR","0004","GER"